# 3ds Max Wavefront OBJ Exporter v0.97b - (c)2007 guruware
# File Created: 18.01.2020 00:09:39

newmtl wire_006135058
	Ns 32
	d 1
	Tr 0
	Tf 1 1 1
	illum 2
	Ka 0.0235 0.5294 0.2275
	Kd 0.0235 0.5294 0.2275
	Ks 0.3500 0.3500 0.3500
